1 6 4 9 8 3 10 5 8 10 9 9 9 10 5 10 2 1 7 3 8 10 3 2 10 6 7 3 8 8
2 4 8 2 2 8 1 3 1 7 2 10 6 1 5 9 7 5 2 10 2 4 5 7 4 10 6 10 1 1
7 3 7 9 5 6 4 3 6 4 2 9 2 1 8 3 10 4 8 3 6 9 9 4 9 9 5 8 6 8
9 7 2 6 5 9 2 8 5 5 4 7 4 5 8 7 4 6 8 7 5 7 10 4 2 8 4 2 9 6
4 4 9 2 5 2 1 2 9 4 2 6 10 5 6 2 7 4 7 2 6 2 4 6 10 5 8 4 7 2
7 4 4 8 3 5 7 8 2 1 2 1 9 5 10 4 7 10 1 2 1 10 8 10 6 8 10 7 8 2
8 4 10 7 7 2 2 8 2 3 5 8 9 9 3 3 1 2 6 3 3 4 7 10 9 4 4 5 6 7
2 3 2 1 1 1 3 5 1 9 2 2 5 7 10 4 2 10 3 7 9 10 10 1 9 3 2 1 3 2
4 7 6 10 4 5 3 10 6 4 2 5 3 4 3 2 3 5 4 7 4 10 5 4 2 2 5 4 5 9
10 2 5 3 7 3 8 8 1 1 6 5 1 7 7 8 7 2 4 9 7 5 6 7 7 3 3 5 10 1
8 8 8 3 5 5 3 9 6 8 9 5 5 8 3 10 10 1 4 9 2 10 3 2 5 10 8 6 7 10
7 5 10 9 6 4 9 10 5 3 3 10 2 6 5 9 2 3 6 1 1 3 7 2 9 9 5 4 3 4
10 8 7 9 2 7 9 2 2 1 10 5 2 8 8 8 10 7 7 4 3 2 1 9 10 6 7 3 3 6
5 3 7 9 5 1 10 9 8 8 6 5 1 4 5 10 3 4 5 1 7 5 10 7 9 8 6 4 10 4
7 2 5 10 7 9 3 9 5 1 9 4 9 3 9 8 5 3 4 2 5 2 3 5 9 10 8 10 9 4
9 5 6 2 5 10 4 9 7 6 7 3 5 6 9 6 6 4 10 9 2 8 4 5 2 9 8 9 3 4
5 10 6 10 1 9 10 1 5 9 1 5 10 7 3 7 4 5 1 9 4 9 1 10 7 1 9 1 7 5
4 3 5 7 1 10 8 5 5 3 8 4 8 5 8 7 2 6 1 9 4 9 9 2 9 9 8 3 5 2
6 8 10 5 3 2 2 2 7 10 3 1 3 2 8 7 1 1 1 8 5 1 2 9 3 7 9 6 9 6
3 1 5 3 1 4 6 3 7 4 9 5 3 4 2 5 9 3 9 3 6 1 6 3 7 3 8 4 5 7

