1164 1066 1101 1156 1106 1121 1082 1080 1043 1047 975 876 1111 1177 1187 1058 1019 1139 1273 1078 
972 867 694 831 875 806 828 814 694 855 745 628 855 834 881 787 802 853 933 733 
1079 971 940 996 893 975 1017 1027 927 1022 892 824 962 1118 1104 986 1042 1043 1143 902 
1048 910 950 940 898 974 977 977 911 1112 873 828 877 1062 1071 1003 921 1051 1149 972 
911 730 783 806 783 848 888 828 726 816 689 648 860 941 903 870 788 879 935 816 
968 871 943 993 945 939 919 964 852 991 815 734 881 1031 998 1039 1062 1039 1168 946 
1046 828 901 860 822 909 840 919 898 990 736 703 917 1056 1024 924 821 954 994 811 
788 602 729 743 722 802 697 713 613 840 687 613 632 766 802 705 751 836 836 815 
880 787 794 768 749 809 750 782 784 851 739 651 787 895 904 834 773 856 993 787 
962 853 894 863 842 900 896 906 825 996 790 700 832 1018 952 886 843 974 1007 898 
1165 1067 996 1082 978 1040 987 1076 957 1122 981 848 1082 1175 1152 1062 1012 1137 1212 1009 
985 909 804 959 779 940 886 910 866 963 794 786 924 1056 1005 886 899 1019 1011 824 
1098 990 945 1042 907 1025 1037 1002 881 1068 888 772 930 1177 1116 971 1008 1149 1097 984 
1052 980 983 997 896 1049 996 993 908 1087 932 886 984 1114 1044 1004 1004 1114 1198 943 
1098 976 937 1075 990 963 1037 980 988 1045 899 831 1016 1099 1049 1062 1013 1056 1200 959 
1076 1045 941 1054 968 1017 1011 1024 868 1127 922 849 912 1105 1150 1038 966 1068 1241 1009 
1082 946 981 979 1016 970 919 978 861 937 859 737 957 979 1046 975 934 974 1147 971 
988 921 892 1021 942 929 935 945 847 988 891 844 860 972 1096 958 985 1004 1146 968 
890 806 779 754 811 837 742 844 680 901 724 667 878 821 872 795 776 862 912 755 
843 773 752 754 688 798 851 775 728 813 732 639 753 898 910 756 735 860 964 750 

